{
  "$schema": "./node_modules/nx/schemas/nx-schema.json",
  "npmScope": "soluvas",
  "affected": {
    "defaultBase": "main"
  },
  "implicitDependencies": {
    "package.json": {
      "dependencies": "*",
      "devDependencies": "*"
    },
    ".eslintrc.json": "*"
  },
  "tasksRunnerOptions": {
    "default": {
      "runner": "nx/tasks-runners/default",
      "options": {
        "cacheableOperations": [
          "build",
          "lint",
          "test",
          "e2e",
          "build-storybook"
        ]
      }
    }
  },
  "targetDefaults": {
    "build": {
      "dependsOn": [
        "^build"
      ]
    }
  },
  "generators": {
    "@nrwl/react": {
      "application": {
        "style": "@emotion/styled",
        "linter": "eslint",
        "babel": true
      },
      "component": {
        "style": "@emotion/styled"
      },
      "library": {
        "style": "@emotion/styled",
        "linter": "eslint"
      }
    }
  },
  "defaultProject": "leanpd"
}
